                           1                            2                            3                            4                            5 
              version_number                 initial_mass                    initial_z                    burn_min1                    burn_min2 
                        6208      1.0000000000000000E+000      2.0000000000000000E-002      5.0000000000000000E+001      1.0000000000000000E+003 

                               1                                2                                3                                4                                5                                6                                7                                8                                9                               10                               11                               12                               13                               14                               15                               16                               17                               18                               19                               20                               21                               22                               23                               24                               25                               26 
                    model_number                         star_age                        star_mass                        star_mdot                     log_abs_mdot                       luminosity                            log_L                           radius                            log_R                      effective_T                         log_Teff                            log_g                         center_P                     log_center_P                         center_T                     log_center_T                       center_Rho                   log_center_Rho                        center_h1                       center_he4                       center_c12                       center_o16                       surface_h1                      surface_he4                      surface_c12                      surface_o16 
example_solar_model          957          4.6100000000000000E+009          1.0000000000000000E+000          0.0000000000000000E+000         -9.8999999999999986E+001          9.9263753767662799E-001         -3.2093055062428362E-003          9.9994814730675963E-001         -2.2519922410476176E-005          5.7655182583817195E+003          3.7608383518109574E+000          4.4379343932579456E+000          2.3275819580176371E+017          1.7366904982150970E+001          1.5714264871825030E+007          7.1962940691221355E+000          1.5190322134515435E+002          2.1815669838535081E+000          3.3842179958471241E-001          6.3963061482377470E-001          1.2615014473717486E-005          9.2263303735217097E-003          7.2867180444556745E-001          2.5258611299220757E-001          3.2043144821005966E-003          8.7975042708764908E-003 
1m_pre_ms_to_wd              275          4.6100000000000000E+009          9.9899876529460963E-001         -2.6906770583398618E-013         -1.2570138424197344E+001          9.7447863746349950E-001         -1.1227677052684109E-002          9.9981448542515106E-001         -8.0575430358986776E-005          5.7393510143283202E+003          3.7588627866783217E+000          4.4376154557369931E+000          2.2823036565697510E+017          1.7358373426059096E+001          1.5588818400775058E+007          7.1928131978398353E+000          1.4875077509715044E+002          2.1724592373890808E+000          3.4711943449062904E-001          6.3238461796502154E-001          2.1734182390629159E-005          8.6808388933185023E-003          6.9999997063923747E-001          2.7997020236474884E-001          3.4416106108119968E-003          9.3376729792512877E-003 

