                           1                            2                            3                            4                            5 
              version_number                 initial_mass                    initial_z                    burn_min1                    burn_min2 
                        6208      1.0000000000000000E+000      2.0000000000000000E-002      5.0000000000000000E+001      1.0000000000000000E+003 

                               1                                2                                3                                4                                5                                6                                7                                8                                9                               10                               11                               12                               13                               14                               15                               16                               17                               18                               19                               20                               21                               22                               23                               24                               25                               26 
                    model_number                         star_age                        star_mass                        star_mdot                     log_abs_mdot                       luminosity                            log_L                           radius                            log_R                      effective_T                         log_Teff                            log_g                         center_P                     log_center_P                         center_T                     log_center_T                       center_Rho                   log_center_Rho                        center_h1                       center_he4                       center_c12                       center_o16                       surface_h1                      surface_he4                      surface_c12                      surface_o16 
                             216          1.8862937700470183E+007          9.9998550175673417E-001         -1.4663407009724448E-013         -1.2833765110621654E+001          5.0350475330373656E-001         -2.9799642516232056E-001          1.0671970513123097E+000          2.8244616609428470E-002          4.7098600613761382E+003          3.6730080036310189E+000          4.3813938236415755E+000          2.7867172893016612E+016          1.6445092912048786E+001          7.9607326433403436E+006          6.9009530386318829E+000          2.6146107489969104E+001          1.4174070422871379E+000          6.9998826164308681E-001          2.7997020423620195E-001          3.4416064205914833E-003          9.3376729792284466E-003          6.9999999395812462E-001          2.7997020236474879E-001          3.4416106108120046E-003          9.3376729792512877E-003 
                             220          2.2528685253208417E+007          9.9998491811208068E-001         -1.6995051273518717E-013         -1.2769677520826573E+001          6.0367356343578316E-001         -2.1919784270765741E-001          1.0455968864051430E+000          1.9364281325473166E-002          4.9790652408446113E+003          3.6971478168866621E+000          4.3991542407320852E+000          4.8158531232068776E+016          1.6682673233076706E+001          8.9901959988158420E+006          6.9537691600620715E+000          3.9906876249743789E+001          1.6010477342838128E+000          6.9996658076124263E-001          2.7997026682387921E-001          3.4415179613875653E-003          9.3376729783410974E-003          6.9999999362171239E-001          2.7997020236474884E-001          3.4416106108120050E-003          9.3376729792512877E-003 
                             225          2.5927482896287121E+007          9.9998427007010138E-001         -2.0595486424131803E-013         -1.2686227946420765E+001          7.3604988951432848E-001         -1.3309274815370428E-001          1.0373540438788718E+000          1.5927004278442850E-002          5.2528225410925625E+003          3.7203927290486654E+000          4.4060285133807540E+000          7.8825577617158352E+016          1.6896667161849699E+001          1.0165703613841504E+007          7.0071374434790643E+000          5.7610927853086835E+001          1.7605048698148045E+000          6.9991571099836924E-001          2.7997260707125599E-001          3.4400138036473960E-003          9.3376729520422298E-003          6.9999999349485853E-001          2.7997020236474890E-001          3.4416106108120042E-003          9.3376729792512894E-003 
                             230          2.8926176168687332E+007          9.9998358331826631E-001         -2.4481581103734310E-013         -1.2611160537406660E+001          8.6862672748669556E-001         -6.1166811605837458E-002          1.0345577139488862E+000          1.4754723276651322E-002          5.4822691554381972E+003          3.7389603536865286E+000          4.4083727771270107E+000          1.1498245290787922E+017          1.7060631569164659E+001          1.1526863187432928E+007          7.0617111385406961E+000          7.3989216270395929E+001          1.8691684270886111E+000          6.9982945277836783E-001          2.8002358026030799E-001          3.4189130267202185E-003          9.3376723184028995E-003          6.9999999345216513E-001          2.7997020236474895E-001          3.4416106108120055E-003          9.3376729792512929E-003 
                             235          3.1801602090762869E+007          9.9998283303719571E-001         -2.6651094160731679E-013         -1.2574284956310446E+001          9.3281909571403454E-001         -3.0202572063675982E-002          1.0148916678562172E+000          6.4196870145684145E-003          5.6346757795432359E+003          3.7508689317031099E+000          4.4250425238027766E+000          1.3917257402709051E+017          1.7143553659683807E+001          1.2893324552455576E+007          7.1103649149192192E+000          8.0078061931075908E+001          1.9035135536967291E+000          6.9976192156827965E-001          2.8011781399472757E-001          3.3469852324661698E-003          9.3376691950379179E-003          6.9999999343893704E-001          2.7997020236474879E-001          3.4416106108120007E-003          9.3376729792512842E-003 
                             240          3.8261059898021795E+007          9.9998130991813672E-001         -2.0830591159747147E-013         -1.2681298404859117E+001          7.4923643969354481E-001         -1.2538110853521667E-001          9.1024418874711399E-001         -4.0842085042321410E-002          5.6325516598255044E+003          3.7507051836136696E+000          4.5195654064224939E+000          1.4226952409407944E+017          1.7153111878754157E+001          1.3630530417454941E+007          7.1345127562669317E+000          7.7508318759570983E+001          1.8893483166675420E+000          6.9949615337633819E-001          2.8035291313508121E-001          2.9800201068513770E-003          9.3376484111429743E-003          6.9999999342512575E-001          2.7997020236474890E-001          3.4416106108120011E-003          9.3376729792512964E-003 
                             242          4.3012865385028444E+007          9.9998043281106241E-001         -1.7897051259991421E-013         -1.2747218518014904E+001          6.9170393149687470E-001         -1.6007975587756307E-001          8.8711365443941137E-001         -5.2020736048942043E-002          5.5926784102758356E+003          3.7476198472813937E+000          4.5419223275056861E+000          1.4105944061195555E+017          1.7149402157265406E+001          1.3608975054244746E+007          7.1338254179992555E+000          7.6990476662727346E+001          1.8864370084372435E+000          6.9923611035224720E-001          2.8055891419088524E-001          2.6392240817262676E-003          9.3376262777036673E-003          6.9999999340929575E-001          2.7997020236474879E-001          3.4416106108119998E-003          9.3376729792512859E-003 
                             245          5.4334257948980279E+007          9.9997850521637366E-001         -1.6950770815112188E-013         -1.2770810548013213E+001          6.8563449625282469E-001         -1.6390733992476533E-001          8.8580628551678098E-001         -5.2661242367393606E-002          5.5844859730714343E+003          3.7469832044288185E+000          4.5432025029816643E+000          1.4188863510345482E+017          1.7151947611035204E+001          1.3558442133036336E+007          7.1322097918987781E+000          7.7762060937738170E+001          1.8907677622323420E+000          6.9859908608395305E-001          2.8107858430907240E-001          1.9164662846639703E-003          9.3375669350998988E-003          6.9999999335811913E-001          2.7997020236474884E-001          3.4416106108119994E-003          9.3376729792512894E-003 
                             250          9.4329518123141319E+007          9.9997159503446442E-001         -1.7437578077415004E-013         -1.2758513834808014E+001          7.0144666237024700E-001         -1.5400534690070375E-001          8.9067070849317143E-001         -5.0282830101448177E-002          5.6010506056824552E+003          3.7482694965518610E+000          4.5384426773210240E+000          1.4656716490878902E+017          1.7166036687248258E+001          1.3540868265425628E+007          7.1316465130044655E+000          8.0552831643737363E+001          1.9060808116160046E+000          6.9623128050773575E-001          2.8321064519861905E-001          4.4950201022282043E-004          9.3372580206071767E-003          6.9999999320616513E-001          2.7997020236474873E-001          3.4416106108119968E-003          9.3376729792512894E-003 
                             255          1.9385052391970971E+008          9.9995397787148133E-001         -1.7816082184450740E-013         -1.2749187792596652E+001          7.1260488059015381E-001         -1.4715120751669888E-001          8.9459687458883042E-001         -4.8372623434986758E-002          5.6108405636185726E+003          3.7490279280646321E+000          4.5346146126666973E+000          1.4956302017633706E+017          1.7174824226425176E+001          1.3534330180935178E+007          7.1314367672419561E+000          8.2635719491397637E+001          1.9171678127539069E+000          6.8974501138119604E-001          2.8963549728730231E-001          1.9476976931759523E-005          9.3358097802206299E-003          6.9999999260657797E-001          2.7997020236474868E-001          3.4416106108119959E-003          9.3376729792512842E-003 
                             260          4.4149063306342679E+008          9.9990921353994067E-001         -1.8226164619837231E-013         -1.2739304711470398E+001          7.2627172641550641E-001         -1.3890086248976338E-001          9.0024838366748750E-001         -4.5637649701105017E-002          5.6198280474081630E+003          3.7497230274544253E+000          4.5291252229668242E+000          1.5266008438619594E+017          1.7183725498111407E+001          1.3616116963022904E+007          7.1340532733645778E+000          8.5003912315020898E+001          1.9294389146286917E+000          6.7201238653110396E-001          3.0737323784784598E-001          1.4977912748407845E-005          9.3300996914748215E-003          6.9999999118434264E-001          2.7997020236474884E-001          3.4416106108119977E-003          9.3376729792512964E-003 
                             265          1.0576984694479207E+009          9.9979374104380692E-001         -1.9067705300967098E-013         -1.2719701568888526E+001          7.5600594676830657E-001         -1.2147478831029733E-001          9.1219608465125834E-001         -3.9911796179713806E-002          5.6391885952407074E+003          3.7512166192385958E+000          4.5176233594067217E+000          1.6010769131814605E+017          1.7204412195234710E+001          1.3835413784790583E+007          7.1409921524010009E+000          9.0933129719330978E+001          1.9587221388101972E+000          6.2729256942776335E-001          3.5210266816051439E-001          1.5516762954935661E-005          9.3112382133679599E-003          6.9999998767254346E-001          2.7997020236474901E-001          3.4416106108119977E-003          9.3376729792512929E-003 
                             270          2.5910207528801842E+009          9.9948073414761052E-001         -2.1336948819956032E-013         -1.2670867684508416E+001          8.3745673749102056E-001         -7.7037619102126503E-002          9.4460274698643598E-001         -2.4750795791590372E-002          5.6851956013031531E+003          3.7547454113465770E+000          4.4871653721307592E+000          1.8318197525995491E+017          1.7262882737725619E+001          1.4476235419401657E+007          7.1606556371962977E+000          1.0965119431683239E+002          2.0400133663590521E+000          5.1204104189799970E-001          4.6738226478808487E-001          1.7272597306240279E-005          9.2094379261170745E-003          6.9999997868391306E-001          2.7997020236474890E-001          3.4416106108119942E-003          9.3376729792512912E-003 
                             274          5.3432579646541300E+009          9.9880147725320878E-001         -2.6908566614918451E-013         -1.2570109435934173E+001          1.0359259551402766E+000          1.5328714460163824E-002          1.0251426010228732E+000          1.0784281518355310E-002          5.7553197396531550E+003          3.7600694560821770E+000          4.4157999663889669E+000          2.5171306032393152E+017          1.7400905749833086E+001          1.6118084335215559E+007          7.2073134238162648E+000          1.7038463550772300E+002          2.2314304295441718E+000          2.8016475882733960E-001          6.9941502030243696E-001          2.5233491026489204E-005          8.1080101190250664E-003          6.9999996383910834E-001          2.7997020236474879E-001          3.4416106108119938E-003          9.3376729792512894E-003 
                             275          6.0520308263449459E+009          9.9859003432949489E-001         -2.9832254469985052E-013         -1.2525313925086579E+001          1.1006302780282364E+000          4.1641455958068570E-002          1.0524259129697877E+000          2.2191532801389007E-002          5.7669211817136429E+003          3.7609440158151357E+000          4.3928935154043574E+000          2.7951626078085146E+017          1.7446407077918249E+001          1.6708690038294641E+007          7.2229424025300881E+000          1.9768962427541280E+002          2.2959838759996432E+000          2.1137951080433187E-001          7.6830867184608775E-001          3.0252261661629024E-005          7.2673820286387096E-003          6.9999996348535254E-001          2.7997020236474862E-001          3.4416106108119912E-003          9.3376729792512790E-003 
                             280          8.2019145509563112E+009          9.9780579982944650E-001         -4.1722903589566188E-013         -1.2379625475675828E+001          1.3377167531554477E+000          1.2636416607458123E-001          1.1609064169753684E+000          6.4797211789138692E-002          5.7652992422758825E+003          3.7608218538503890E+000          4.3073409538182510E+000          4.3525418721337440E+017          1.7638742957790328E+001          1.8752871426565729E+007          7.2730677760229119E+000          3.6122761773538042E+002          2.5577809469890762E+000          1.1095041739494658E-002          9.6900009505442197E-001          5.2857389935767295E-005          4.0582295069391053E-003          6.9999995265482984E-001          2.7997020236474879E-001          3.4416106108119951E-003          9.3376729792512894E-003 
                             285          8.9798471494847507E+009          9.9744619563205728E-001         -4.9526392551557495E-013         -1.2305163304402141E+001          1.4731092101868026E+000          1.6823494482181900E-001          1.2218128127959638E+000          8.7004675139916013E-002          5.7568619725010394E+003          3.7601858168618101E+000          4.2627694813564201E+000          5.8655938159987059E+017          1.7768311985412673E+001          1.8769591875920583E+007          7.2734548294693697E+000          4.9045083930280384E+002          2.6905954820737445E+000          6.4190984992896225E-004          9.7947186717313572E-001          5.4283897568963708E-005          3.9110212143787246E-003          6.9999995103350676E-001          2.7997020236474873E-001          3.4416106108119942E-003          9.3376729792512929E-003 
