                               1                                2                                3                                4                                5                                6                                7                                8                                9                               10                               11                               12                               13                               14                               15                               16                               17                               18                               19                               20                               21                               22                               23                               24                               25                               26 
                    model_number                         star_age                        star_mass                        star_mdot                     log_abs_mdot                       luminosity                            log_L                           radius                            log_R                      effective_T                         log_Teff                            log_g                         center_P                     log_center_P                         center_T                     log_center_T                       center_Rho                   log_center_Rho                        center_h1                       center_he4                       center_c12                       center_o16                       surface_h1                      surface_he4                      surface_c12                      surface_o16 

                             286          8.9802727177633400E+009          9.9744589098113501E-001         -4.9529396034681945E-013         -1.2305136967806037E+001          1.4732119929748309E+000          1.6826524565775330E-001          1.2218732288401084E+000          8.7026149547142426E-002          5.7568200583134712E+003          3.7601826548671804E+000          4.2627263998949783E+000          5.8666967497173824E+017          1.7768393640060868E+001          1.8769171101043247E+007          7.2734450933889629E+000          4.9054969583402516E+002          2.6906830107643356E+000          6.4276388406510918E-004          9.7947093169845834E-001          5.4279071354935876E-005          3.9116661064004833E-003          6.9999995683050187E-001          2.7997020236474873E-001          3.4416106108119946E-003          9.3376729792512859E-003 
                             286          8.9798173869814243E+009          9.9744612498482388E-001         -4.9523617860286304E-013         -1.2305187636213988E+001          1.4731207961117874E+000          1.6823836051121044E-001          1.2218357042256007E+000          8.7012811843296428E-002          5.7568193632616103E+003          3.7601826024324678E+000          4.2627531771893992E+000          5.8647878227058893E+017          1.7768252304755922E+001          1.8769016570022810E+007          7.2734415177251588E+000          4.9039718740010062E+002          2.6905479706862989E+000          6.4360554574078308E-004          9.7947008868160046E-001          5.4277876471138812E-005          3.9116753833995785E-003          6.9999994628885598E-001          2.7997020236474901E-001          3.4416106108119964E-003          9.3376729792512981E-003 

